2018-12-10 11:23:26,660 core INFO Request #1
2018-12-10 11:23:26,660 core INFO Download started at 1544441006661
2018-12-10 11:23:26,664 urllib3.connectionpool DEBUG Starting new HTTPS connection (1): api4.successfactors.com:443
2018-12-10 11:23:28,040 urllib3.connectionpool DEBUG https://api4.successfactors.com:443 "GET /odata/v2/EmpEmployment?%24format=json&%24top=10&%24filter=personIdExternal+in+%2747995%27%2C%27204515%27&%24expand=jobInfoNav%2FdivisionNav&%24select=jobInfoNav%2FdivisionNav%2Fname%2CjobInfoNav%2FdivisionNav%2FexternalCode%2CpersonIdExternal HTTP/1.1" 200 None
2018-12-10 11:23:28,043 core INFO Download ended at 1544441008043
2018-12-10 11:23:28,043 core INFO Total download size 1448 bytes
2018-12-10 11:23:28,044 core INFO Total download time 1.382 seconds
2018-12-10 11:23:28,044 core INFO IJson started at 1544441008044
2018-12-10 11:23:28,044 core INFO IJson ended at 1544441008044
2018-12-10 11:23:28,044 core INFO Total IJson time 0.000
2018-12-10 11:23:28,045 core INFO Get next started at 1544441008045
2018-12-10 11:23:28,048 core INFO Get next ended at 1544441008048
2018-12-10 11:23:28,048 core INFO Total get next time 0.003 seconds
2018-12-10 11:23:28,050 core INFO Transform started at 1544441008050
2018-12-10 11:23:28,055 core INFO Transform ended at 1544441008056
2018-12-10 11:23:28,056 core INFO Total transform time 0.006 seconds
2018-12-10 11:23:28,062 core INFO Overall download time 1.382 seconds
2018-12-10 11:23:28,089 core INFO Overall ijson time 0.000 seconds
2018-12-10 11:23:28,090 core INFO Overall next time 0.003 seconds
2018-12-10 11:23:28,090 core INFO Overall download size 1448.000 bytes
2018-12-10 11:23:28,090 core INFO Overall transform time 0.006 seconds
2018-12-10 11:23:28,348 root DEBUG Calling callbacks: []
2018-12-10 11:23:28,349 airflow.settings DEBUG Disposing DB connection pool (PID 4917)
2018-12-10 11:29:43,754 core INFO Request #1
2018-12-10 11:29:43,809 core INFO Download started at 1544441383809
2018-12-10 11:29:43,816 urllib3.connectionpool DEBUG Starting new HTTPS connection (1): api4.successfactors.com:443
2018-12-10 11:29:45,031 urllib3.connectionpool DEBUG https://api4.successfactors.com:443 "GET /odata/v2/EmpEmployment?%24format=json&%24top=10&%24filter=personIdExternal+in+%2747995%27%2C%27204515%27&%24expand=jobInfoNav%2FdivisionNav&%24select=jobInfoNav%2FdivisionNav%2Fname%2CjobInfoNav%2FdivisionNav%2FexternalCode%2CpersonIdExternal HTTP/1.1" 200 None
2018-12-10 11:29:45,056 core INFO Download ended at 1544441385057
2018-12-10 11:29:45,056 core INFO Total download size 1448 bytes
2018-12-10 11:29:45,057 core INFO Total download time 1.248 seconds
2018-12-10 11:29:45,057 core INFO IJson started at 1544441385057
2018-12-10 11:29:45,057 core INFO IJson ended at 1544441385058
2018-12-10 11:29:45,058 core INFO Total IJson time 0.001
2018-12-10 11:29:45,058 core INFO Get next started at 1544441385059
2018-12-10 11:29:45,063 core INFO Get next ended at 1544441385064
2018-12-10 11:29:45,064 core INFO Total get next time 0.005 seconds
2018-12-10 11:29:45,065 core INFO Transform started at 1544441385066
2018-12-10 11:29:45,069 core INFO Transform ended at 1544441385070
2018-12-10 11:29:45,070 core INFO Total transform time 0.004 seconds
2018-12-10 11:29:45,085 core INFO Overall download time 1.248 seconds
2018-12-10 11:29:45,085 core INFO Overall ijson time 0.001 seconds
2018-12-10 11:29:45,086 core INFO Overall next time 0.005 seconds
2018-12-10 11:29:45,086 core INFO Overall download size 1448.000 bytes
2018-12-10 11:29:45,086 core INFO Overall transform time 0.004 seconds
2018-12-10 11:29:45,198 root DEBUG Calling callbacks: []
2018-12-10 11:29:45,199 airflow.settings DEBUG Disposing DB connection pool (PID 8775)
2018-12-10 11:35:16,842 core INFO Request #1
2018-12-10 11:35:16,849 core INFO Download started at 1544441716849
2018-12-10 11:35:16,854 urllib3.connectionpool DEBUG Starting new HTTPS connection (1): api4.successfactors.com:443
2018-12-10 11:35:18,067 urllib3.connectionpool DEBUG https://api4.successfactors.com:443 "GET /odata/v2/EmpEmployment?%24format=json&%24top=10&%24filter=personIdExternal+in+%2747995%27%2C%27204515%27&%24expand=jobInfoNav%2FdivisionNav&%24select=jobInfoNav%2FdivisionNav%2Fname%2CjobInfoNav%2FdivisionNav%2FexternalCode%2CpersonIdExternal HTTP/1.1" 200 None
2018-12-10 11:35:18,074 core INFO Download ended at 1544441718075
2018-12-10 11:35:18,075 core INFO Total download size 1448 bytes
2018-12-10 11:35:18,075 core INFO Total download time 1.226 seconds
2018-12-10 11:35:18,076 core INFO IJson started at 1544441718076
2018-12-10 11:35:18,076 core INFO IJson ended at 1544441718076
2018-12-10 11:35:18,076 core INFO Total IJson time 0.000
2018-12-10 11:35:18,077 core INFO Get next started at 1544441718077
2018-12-10 11:35:18,082 core INFO Get next ended at 1544441718082
2018-12-10 11:35:18,082 core INFO Total get next time 0.005 seconds
2018-12-10 11:35:18,093 core INFO Transform started at 1544441718093
2018-12-10 11:35:18,097 core INFO Transform ended at 1544441718097
2018-12-10 11:35:18,097 core INFO Total transform time 0.004 seconds
2018-12-10 11:35:18,106 core INFO Overall download time 1.226 seconds
2018-12-10 11:35:18,106 core INFO Overall ijson time 0.000 seconds
2018-12-10 11:35:18,106 core INFO Overall next time 0.005 seconds
2018-12-10 11:35:18,107 core INFO Overall download size 1448.000 bytes
2018-12-10 11:35:18,107 core INFO Overall transform time 0.004 seconds
2018-12-10 11:35:18,434 root DEBUG Calling callbacks: []
2018-12-10 11:35:18,435 airflow.settings DEBUG Disposing DB connection pool (PID 12497)
2018-12-10 11:40:05,975 core INFO Request #1
2018-12-10 11:40:05,986 core INFO Download started at 1544442005986
2018-12-10 11:40:05,989 urllib3.connectionpool DEBUG Starting new HTTPS connection (1): api4.successfactors.com:443
2018-12-10 11:40:07,197 urllib3.connectionpool DEBUG https://api4.successfactors.com:443 "GET /odata/v2/EmpEmployment?%24format=json&%24top=10&%24filter=personIdExternal+in+%2747995%27%2C%27204515%27&%24expand=jobInfoNav%2FdivisionNav&%24select=jobInfoNav%2FdivisionNav%2Fname%2CjobInfoNav%2FdivisionNav%2FexternalCode%2CpersonIdExternal HTTP/1.1" 200 None
2018-12-10 11:40:07,200 core INFO Download ended at 1544442007201
2018-12-10 11:40:07,201 core INFO Total download size 1448 bytes
2018-12-10 11:40:07,201 core INFO Total download time 1.215 seconds
2018-12-10 11:40:07,202 core INFO IJson started at 1544442007202
2018-12-10 11:40:07,202 core INFO IJson ended at 1544442007203
2018-12-10 11:40:07,203 core INFO Total IJson time 0.001
2018-12-10 11:40:07,203 core INFO Get next started at 1544442007204
2018-12-10 11:40:07,256 core INFO Get next ended at 1544442007256
2018-12-10 11:40:07,257 core INFO Total get next time 0.052 seconds
2018-12-10 11:40:07,259 core INFO Transform started at 1544442007260
2018-12-10 11:40:07,263 core INFO Transform ended at 1544442007264
2018-12-10 11:40:07,264 core INFO Total transform time 0.004 seconds
2018-12-10 11:40:07,271 core INFO Overall download time 1.215 seconds
2018-12-10 11:40:07,304 core INFO Overall ijson time 0.001 seconds
2018-12-10 11:40:07,304 core INFO Overall next time 0.052 seconds
2018-12-10 11:40:07,304 core INFO Overall download size 1448.000 bytes
2018-12-10 11:40:07,304 core INFO Overall transform time 0.004 seconds
2018-12-10 11:40:07,545 root DEBUG Calling callbacks: []
2018-12-10 11:40:07,545 airflow.settings DEBUG Disposing DB connection pool (PID 15678)
2018-12-10 13:13:06,931 core INFO Request #1
2018-12-10 13:13:06,978 core INFO Download started at 1544447586979
2018-12-10 13:13:06,991 urllib3.connectionpool DEBUG Starting new HTTPS connection (1): api4.successfactors.com:443
2018-12-10 13:13:08,844 urllib3.connectionpool DEBUG https://api4.successfactors.com:443 "GET /odata/v2/EmpEmployment?%24format=json&%24top=10&%24filter=personIdExternal+in+%2747995%27%2C%27204515%27&%24expand=jobInfoNav%2FdivisionNav&%24select=jobInfoNav%2FdivisionNav%2Fname%2CjobInfoNav%2FdivisionNav%2FexternalCode%2CpersonIdExternal HTTP/1.1" 200 None
2018-12-10 13:13:08,847 core INFO Download ended at 1544447588848
2018-12-10 13:13:08,848 core INFO Total download size 1448 bytes
2018-12-10 13:13:08,848 core INFO Total download time 1.869 seconds
2018-12-10 13:13:08,848 core INFO IJson started at 1544447588849
2018-12-10 13:13:08,849 core INFO IJson ended at 1544447588849
2018-12-10 13:13:08,849 core INFO Total IJson time 0.000
2018-12-10 13:13:08,849 core INFO Get next started at 1544447588850
2018-12-10 13:13:08,854 core INFO Get next ended at 1544447588854
2018-12-10 13:13:08,854 core INFO Total get next time 0.004 seconds
2018-12-10 13:13:08,858 core INFO Transform started at 1544447588858
2018-12-10 13:13:08,862 core INFO Transform ended at 1544447588862
2018-12-10 13:13:08,862 core INFO Total transform time 0.004 seconds
2018-12-10 13:13:08,870 core INFO Overall download time 1.869 seconds
2018-12-10 13:13:08,870 core INFO Overall ijson time 0.000 seconds
2018-12-10 13:13:08,870 core INFO Overall next time 0.004 seconds
2018-12-10 13:13:08,870 core INFO Overall download size 1448.000 bytes
2018-12-10 13:13:08,871 core INFO Overall transform time 0.004 seconds
2018-12-10 13:13:09,262 root DEBUG Calling callbacks: []
2018-12-10 13:13:09,262 airflow.settings DEBUG Disposing DB connection pool (PID 27990)
